<svg xmlns="http://www.w3.org/2000/svg" viewBox="12908.082 -12.213 34.462 40.435">
  <defs>
    <style>
      .cls-1 {
        fill: #5fffbe;
      }

      .cls-2 {
        fill: #00d37e;
      }
    </style>
  </defs>
  <g id="Group_1905" data-name="Group 1905" transform="translate(15485 -335)">
    <g id="Symbol_440_35" data-name="Symbol 440 – 35" transform="translate(32 -52)">
      <path id="Path_26601" data-name="Path 26601" class="cls-1" d="M17.231,56,0,61.9V90.533l17.231,5.9,17.231-5.9V61.9Z" transform="translate(-2608.918 318.787)"/>
      <path id="Path_26603" data-name="Path 26603" class="cls-2" d="M0,102.57V104.1L17.231,110l17.231-5.9V75.638Z" transform="translate(-2608.918 305.22)"/>
    </g>
  </g>
</svg>
