<svg xmlns="http://www.w3.org/2000/svg" xmlns:xlink="http://www.w3.org/1999/xlink" viewBox="12765.136 -11.724 40.435 40.435">
  <defs>
    <style>
      .cls-1 {
        fill: #fcffd8;
      }

      .cls-2 {
        fill: #6ab4ba;
      }

      .cls-3 {
        clip-path: url(#clip-path);
      }

      .cls-4 {
        fill: #002eae;
      }

      .cls-5 {
        fill: #84ffce;
        opacity: 0.8;
      }
    </style>
    <clipPath id="clip-path">
      <ellipse id="Ellipse_440" data-name="Ellipse 440" class="cls-1" cx="20.217" cy="20.217" rx="20.217" ry="20.217" transform="translate(0 0)"/>
    </clipPath>
  </defs>
  <g id="Symbol_443_37" data-name="Symbol 443 – 37" transform="translate(15472 -335)">
    <path id="Path_26726" data-name="Path 26726" class="cls-2" d="M20.217,0A20.217,20.217,0,1,1,0,20.217,20.217,20.217,0,0,1,20.217,0Z" transform="translate(-2706.864 323.276)"/>
    <g id="Mask_Group_44" data-name="Mask Group 44" class="cls-3" transform="translate(-2706.864 323.276)">
      <g id="Group_1860" data-name="Group 1860" transform="translate(-4.03 7.737)">
        <path id="Path_26727" data-name="Path 26727" class="cls-4" d="M107.321,36.308,92.66,11.3,78,36.308Z" transform="translate(-78 -0.91)"/>
        <path id="Path_26728" data-name="Path 26728" class="cls-5" d="M129.432,35.4,108.67,0,88,35.4Z" transform="translate(-78.894)"/>
      </g>
    </g>
  </g>
</svg>
