<?xml version="1.0" encoding="utf-8"?>
<!-- Generator: Adobe Illustrator 22.1.0, SVG Export Plug-In . SVG Version: 6.00 Build 0)  -->
<svg version="1.1" id="Layer_1" xmlns="http://www.w3.org/2000/svg" xmlns:xlink="http://www.w3.org/1999/xlink" x="0px" y="0px"
	 viewBox="0 0 22 18" style="enable-background:new 0 0 22 18;" xml:space="preserve">
<path id="Path_26757" d="M1,1.3L2.3,0L19,16.7L17.7,18l-3.1-3.1c-1.2,0.4-2.4,0.6-3.6,0.6c-4.9,0-9.2-3-11-7.5
	c0.7-1.7,1.8-3.3,3.2-4.5L1,1.3 M11,5c1.6,0,3,1.2,3,2.9c0,0.4-0.1,0.8-0.2,1.1L10,5.2C10.3,5.1,10.7,5,11,5 M11,0.5
	c4.9,0,9.2,3,11,7.5c-0.8,2.1-2.2,3.9-4,5.2l-1.4-1.4c1.4-0.9,2.5-2.2,3.2-3.8c-1.6-3.4-5.1-5.5-8.8-5.5C9.9,2.5,8.8,2.7,7.8,3
	L6.3,1.5C7.8,0.8,9.4,0.5,11,0.5 M2.2,8c1.6,3.4,5.1,5.5,8.8,5.5c0.7,0,1.3-0.1,2-0.2L10.7,11C9.3,10.9,8.1,9.7,8,8.3L4.6,4.9
	C3.6,5.7,2.8,6.8,2.2,8z"/>
</svg>
