<?xml version="1.0" encoding="utf-8"?>
<!-- Generator: Adobe Illustrator 22.1.0, SVG Export Plug-In . SVG Version: 6.00 Build 0)  -->
<svg version="1.1" id="Layer_1" xmlns="http://www.w3.org/2000/svg" xmlns:xlink="http://www.w3.org/1999/xlink" x="0px" y="0px"
	 viewBox="0 0 31.3 31.3" style="enable-background:new 0 0 31.3 31.3;" xml:space="preserve">
<path id="Symbol_218_2" transform="translate(-9499.935 -14551.207)" d="M9515.5,14580.9c-0.9,0-1.8-0.1-2.7-0.3
	c-0.9-0.2-1.8-0.4-2.6-0.8c-0.8-0.3-1.6-0.8-2.4-1.3s-1.5-1.1-2.2-1.7c-0.6-0.7-1.2-1.4-1.7-2.1c-0.5-0.8-0.9-1.6-1.3-2.4
	c-0.3-0.8-0.6-1.7-0.8-2.6s-0.3-1.8-0.3-2.7s0.1-1.8,0.3-2.7c0.2-0.9,0.4-1.8,0.8-2.6s0.8-1.6,1.3-2.4c0.5-0.8,1.1-1.5,1.8-2.2
	c0.7-0.7,1.4-1.2,2.1-1.7s1.6-0.9,2.4-1.3c0.8-0.4,1.7-0.6,2.6-0.8c0.9-0.2,1.8-0.3,2.7-0.3c0.9,0,1.8,0.1,2.7,0.3
	c0.9,0.2,1.8,0.4,2.6,0.8c0.8,0.3,1.6,0.8,2.4,1.3s1.5,1.1,2.2,1.8c0.7,0.6,1.2,1.4,1.7,2.1c0.5,0.8,0.9,1.6,1.3,2.4
	c0.3,0.8,0.6,1.7,0.8,2.6c0.2,0.9,0.3,1.8,0.3,2.7s-0.1,1.8-0.3,2.7c-0.2,0.9-0.4,1.8-0.8,2.6s-0.8,1.6-1.3,2.4
	c-0.5,0.8-1.1,1.5-1.8,2.2c-0.6,0.6-1.4,1.2-2.1,1.7s-1.6,0.9-2.4,1.3c-0.8,0.4-1.7,0.6-2.6,0.8
	C9517.4,14580.8,9516.5,14580.9,9515.5,14580.9 M9515.5,14582.5c2.2,0,4.2-0.4,6.1-1.2c1.9-0.8,3.5-1.9,5-3.3c1.4-1.4,2.5-3.1,3.3-5
	c0.8-1.9,1.2-3.9,1.2-6.1c0-2.2-0.4-4.2-1.2-6.1c-0.8-1.9-1.9-3.5-3.3-5c-1.4-1.4-3.1-2.6-5-3.3c-1.9-0.8-3.9-1.2-6.1-1.2
	c-2.1,0-4.2,0.4-6.1,1.2c-1.9,0.8-3.5,1.9-5,3.3c-1.4,1.4-2.6,3.1-3.3,5s-1.2,3.9-1.2,6.1c0,2.1,0.4,4.2,1.2,6.1s1.9,3.5,3.3,5
	c1.4,1.4,3.1,2.6,5,3.3C9511.3,14582.1,9513.4,14582.5,9515.5,14582.5z M9519.8,14572.8c0.1,0,0.2,0.1,0.3,0.1
	c0.1,0,0.2,0.1,0.3,0.2c0.1,0.1,0.1,0.1,0.2,0.2c0,0.1,0.1,0.2,0.1,0.3v0v0v0v0c0,0.1,0,0.2-0.1,0.3c0,0.1-0.1,0.2-0.2,0.2
	c-0.1,0.1-0.2,0.1-0.3,0.1c-0.1,0-0.2,0.1-0.3,0.1h-1.9h-1.9h-1.9h-1.9h0h0h0h0c-0.1,0-0.2,0-0.3-0.1c-0.1,0-0.2-0.1-0.2-0.2
	c-0.1-0.1-0.1-0.2-0.1-0.3s-0.1-0.2-0.1-0.3c0-0.1,0-0.2,0.1-0.4c0-0.1,0.1-0.2,0.2-0.3c0.1-0.1,0.2-0.2,0.3-0.2s0.2-0.1,0.3-0.1
	h0.7h0.7h0.7h0.7v-2.1v-2.1v-2.1v-2.1h-0.7h-0.7h-0.7h-0.7c-0.1,0-0.2,0-0.3-0.1s-0.2-0.1-0.3-0.2c-0.1-0.1-0.1-0.2-0.2-0.3
	s-0.1-0.2-0.1-0.3c0-0.1,0-0.2,0.1-0.3s0.1-0.2,0.2-0.3c0.1-0.1,0.2-0.1,0.3-0.2s0.2-0.1,0.3-0.1h0.9h0.9h0.9h0.9h0h0h0h0
	c0.1,0,0.2,0,0.3,0.1c0.1,0,0.2,0.1,0.2,0.2s0.1,0.2,0.1,0.3c0,0.1,0.1,0.2,0.1,0.3v2.3v2.4v2.3v2.4h0.8h0.8h0.8H9519.8z
	 M9515.9,14560.1L9515.9,14560.1L9515.9,14560.1L9515.9,14560.1L9515.9,14560.1c-0.2,0-0.3-0.1-0.5-0.1c-0.2-0.1-0.3-0.2-0.4-0.3
	c-0.1-0.1-0.2-0.2-0.3-0.4s-0.1-0.3-0.1-0.4c0-0.2,0-0.4,0.1-0.6c0.1-0.2,0.2-0.3,0.3-0.5c0.1-0.1,0.3-0.2,0.4-0.3
	c0.2-0.1,0.3-0.1,0.5-0.2c0.2,0,0.4,0,0.6,0.1c0.2,0.1,0.3,0.2,0.5,0.3c0.1,0.1,0.2,0.3,0.3,0.4c0.1,0.2,0.1,0.3,0.2,0.5l0,0l0,0
	l0,0l0,0c0,0.2,0,0.4-0.1,0.6s-0.2,0.3-0.3,0.4s-0.3,0.2-0.5,0.3C9516.3,14560,9516.1,14560.1,9515.9,14560.1z"/>
</svg>
