<?xml version="1.0" encoding="utf-8"?>
<!-- Generator: Adobe Illustrator 22.1.0, SVG Export Plug-In . SVG Version: 6.00 Build 0)  -->
<svg version="1.1" id="Layer_1" xmlns="http://www.w3.org/2000/svg" xmlns:xlink="http://www.w3.org/1999/xlink" x="0px" y="0px"
	 viewBox="0 0 34.7 6.5" style="enable-background:new 0 0 34.7 6.5;" xml:space="preserve">
<g id="Symbol_160_12" transform="translate(-10269.341 -15222.761)">
	<g id="Path_25860">
		<path d="M10272.6,15229.2c-1.7,0-3.2-1.4-3.2-3.1c0-0.9,0.3-1.7,0.9-2.3c0.6-0.6,1.4-1,2.3-1c0.1,0,0.1,0,0.2,0
			c0.8,0,1.6,0.3,2.3,0.9c0.6,0.6,1,1.4,1,2.3c0,0,0,0.1,0,0.1C10275.8,15227.8,10274.4,15229.2,10272.6,15229.2
			C10272.6,15229.2,10272.6,15229.2,10272.6,15229.2z M10272.5,15224.3C10272.5,15224.3,10272.5,15224.3,10272.5,15224.3
			c-0.5,0-0.9,0.2-1.2,0.5s-0.5,0.8-0.5,1.2c0,1,0.8,1.7,1.8,1.7c0,0,0,0,0,0c1,0,1.8-0.8,1.8-1.8c0-0.5-0.2-0.9-0.5-1.2
			c-0.3-0.3-0.8-0.5-1.2-0.5C10272.6,15224.3,10272.5,15224.3,10272.5,15224.3z"/>
	</g>
	<g id="Path_25861">
		<path d="M10300.9,15229.2C10300.9,15229.2,10300.8,15229.2,10300.9,15229.2L10300.9,15229.2c-1.9,0-3.3-1.5-3.3-3.3
			c0-1.8,1.5-3.2,3.3-3.2c1.7,0,3.2,1.5,3.2,3.2c0,0.9-0.3,1.7-0.9,2.3C10302.5,15228.9,10301.7,15229.2,10300.9,15229.2
			L10300.9,15229.2z M10300.8,15224.3c-0.9,0-1.7,0.8-1.7,1.7c0,1,0.7,1.7,1.7,1.8c0,0,0,0,0,0l0,0.7l0.1-0.7c0.5,0,0.9-0.2,1.2-0.5
			c0.3-0.3,0.5-0.8,0.5-1.2C10302.6,15225.1,10301.8,15224.3,10300.8,15224.3C10300.9,15224.3,10300.9,15224.3,10300.8,15224.3z"/>
	</g>
	<g id="Line_406">
		<path d="M10298.4,15226.9h-23.4c-0.4,0-0.8-0.3-0.8-0.8s0.3-0.8,0.8-0.8h23.4c0.4,0,0.8,0.3,0.8,0.8
			S10298.8,15226.9,10298.4,15226.9z"/>
	</g>
</g>
</svg>
