<?xml version="1.0" encoding="utf-8"?>
<!-- Generator: Adobe Illustrator 22.1.0, SVG Export Plug-In . SVG Version: 6.00 Build 0)  -->
<svg version="1.1" id="Layer_1" xmlns="http://www.w3.org/2000/svg" xmlns:xlink="http://www.w3.org/1999/xlink" x="0px" y="0px"
	 viewBox="0 0 22 22" style="enable-background:new 0 0 22 22;" xml:space="preserve">
<style type="text/css">
	.st0{fill:#002EAE;}
</style>
<g id="Group_1809" transform="translate(-14837 -4357)">
	<g id="Symbol_384_1">
		<g id="Line_1271">
			<rect x="14847" y="4357" class="st0" width="2" height="22"/>
		</g>
		<g id="Line_1272">
			<rect x="14837" y="4367" class="st0" width="22" height="2"/>
		</g>
	</g>
</g>
</svg>
