<?xml version="1.0" encoding="utf-8"?>
<!-- Generator: Adobe Illustrator 22.1.0, SVG Export Plug-In . SVG Version: 6.00 Build 0)  -->
<svg version="1.1" id="Layer_1" xmlns="http://www.w3.org/2000/svg" xmlns:xlink="http://www.w3.org/1999/xlink" x="0px" y="0px"
	 viewBox="0 0 47.7 37.1" style="enable-background:new 0 0 47.7 37.1;" xml:space="preserve">
<g id="Symbol_282_2" transform="translate(-1178.672 -12873.949)">
	<g id="Path_25825">
		<path d="M1207.6,12899.4h-4.6c-0.4,0-0.6-0.3-0.6-0.7v-3.9c0-2.8,2.3-5.1,5.1-5.1h7c0.4,0,0.7,0.3,0.7,0.7c0,0.4-0.3,0.6-0.7,0.6
			h-6.9c-2.1,0-3.8,1.7-3.8,3.8v3.3h4c0.4,0,0.7,0.3,0.7,0.7S1208,12899.4,1207.6,12899.4z"/>
	</g>
	<g id="Line_372">
		<path d="M1208.5,12911c-0.3,0-0.6-0.3-0.6-0.6l-0.9-15.1c0-0.4,0.3-0.7,0.6-0.7c0.4,0,0.7,0.3,0.7,0.6l0.9,15.1
			C1209.2,12910.7,1208.9,12911,1208.5,12911C1208.5,12911,1208.5,12911,1208.5,12911z"/>
	</g>
	<g id="Path_25826">
		<path d="M1225.7,12899.4h-4.6c-0.4,0-0.7-0.3-0.7-0.7s0.3-0.7,0.7-0.7h4v-3.3c0-2.1-1.7-3.8-3.8-3.8h-6.8c-0.4,0-0.7-0.3-0.7-0.6
			c0-0.4,0.3-0.7,0.7-0.7h6.8c2.8,0,5.1,2.3,5.1,5.1v3.9C1226.4,12899.1,1226.1,12899.4,1225.7,12899.4z"/>
	</g>
	<g id="Line_373">
		<path d="M1220.2,12911C1220.2,12911,1220.2,12911,1220.2,12911c-0.4,0-0.7-0.3-0.7-0.7l0.9-15.1c0-0.4,0.3-0.6,0.7-0.6
			c0.4,0,0.6,0.3,0.6,0.7l-0.9,15.1C1220.9,12910.7,1220.6,12911,1220.2,12911z"/>
	</g>
	<g id="Line_374">
		<path d="M1204.3,12909.4c-0.4,0-0.6-0.3-0.6-0.7v-9.8c0-0.4,0.3-0.7,0.6-0.7s0.7,0.3,0.7,0.7v9.8
			C1205,12909.1,1204.7,12909.4,1204.3,12909.4z"/>
	</g>
	<g id="Line_375">
		<path d="M1224.6,12909.4c-0.4,0-0.7-0.3-0.7-0.7v-9.8c0-0.4,0.3-0.7,0.7-0.7s0.7,0.3,0.7,0.7v9.8
			C1225.2,12909.1,1224.9,12909.4,1224.6,12909.4z"/>
	</g>
	<g id="Line_376">
		<path d="M1214.4,12894.6c-0.4,0-0.7-0.3-0.7-0.7v-3.6c0-0.4,0.3-0.7,0.7-0.7s0.7,0.3,0.7,0.7v3.6
			C1215.1,12894.4,1214.8,12894.6,1214.4,12894.6z"/>
	</g>
	<g id="Path_25827">
		<path d="M1220.1,12881h-11.4c-0.1,0-0.9-0.1-0.9-1.2c0-0.9,0.4-2.4,1.4-3.6c0.9-1.1,2.4-2.3,5.1-2.3c2.6,0,4.3,1.2,5.2,2.2
			c1.1,1.2,1.6,2.7,1.6,3.6C1221,12880.7,1220.5,12881,1220.1,12881z M1209.1,12879.7h10.7c0-0.4-0.2-1.3-0.9-2.2
			c-0.7-1-2.1-2.3-4.6-2.3c-2.3,0-3.6,1.1-4.2,2C1209.3,12878.2,1209.1,12879.2,1209.1,12879.7z"/>
	</g>
	<g id="Path_25828">
		<path d="M1214.3,12888c-3.1,0-5.6-2.5-5.6-5.6c0-0.7,0.2-1.5,0.5-2.2c0.2-0.3,0.6-0.4,0.9-0.3c0.3,0.2,0.4,0.6,0.3,0.9
			c-0.2,0.5-0.4,1-0.4,1.6c0,2.4,1.9,4.3,4.3,4.3s4.3-1.9,4.3-4.3c0-0.5-0.1-0.9-0.3-1.4c-0.1-0.3,0.1-0.7,0.4-0.8
			c0.3-0.1,0.7,0.1,0.8,0.4c0.2,0.6,0.3,1.2,0.3,1.8C1219.9,12885.5,1217.4,12888,1214.3,12888z"/>
	</g>
	<g id="Line_377">
		<path d="M1218.2,12878.1c-0.2,0-0.4-0.1-0.5-0.3c-0.2-0.3-0.1-0.7,0.2-0.9l1-0.7c0.3-0.2,0.7-0.1,0.9,0.2s0.1,0.7-0.2,0.9l-1,0.7
			C1218.5,12878.1,1218.3,12878.1,1218.2,12878.1z"/>
	</g>
	<g id="Line_378">
		<path d="M1210.5,12878.1c-0.1,0-0.3,0-0.4-0.1l-1-0.7c-0.3-0.2-0.4-0.6-0.2-0.9s0.6-0.4,0.9-0.2l1,0.7c0.3,0.2,0.4,0.6,0.2,0.9
			C1210.9,12878.1,1210.7,12878.1,1210.5,12878.1z"/>
	</g>
	<g id="Line_379">
		<path d="M1214.4,12877.4c-0.4,0-0.7-0.3-0.7-0.7v-2.2c0-0.4,0.3-0.6,0.7-0.6s0.7,0.3,0.7,0.6v2.2
			C1215.1,12877.1,1214.8,12877.4,1214.4,12877.4z"/>
	</g>
	<g id="Path_26258">
		<rect x="1178.7" y="12890.6" width="15" height="1.5"/>
	</g>
	<g id="Path_26259">
		<rect x="1185.4" y="12883.8" width="1.5" height="15"/>
	</g>
</g>
</svg>
